# Blender MTL File: 'None'
# Material Count: 1

newmtl Enemy_howl
Ns 49.300000
Ka 1.000000 1.000000 1.000000
Kd 0.270000 0.400000 1.200000
Ks 0.010000 0.010000 0.010000
Ke 0.000000 0.000000 0.000000
Ni 1.000000
d 1.000000
illum 2
map_Kd Enemy_howl.png