# Blender v2.81 (sub 16) OBJ File: ''
# www.blender.org
mtllib GhoulPrepareDefence.mtl
o Plane
v -1.000000 0.000000 0.750000
v 0.500000 0.000000 0.750000
v -1.000000 0.000000 -0.750000
v 0.500000 0.000000 -0.750000
vt 0.999900 0.999900
vt 0.000100 0.000100
vt 0.999900 0.000100
vt 0.000100 0.999900
vn 0.0000 1.0000 0.0000
usemtl Enemy
s off
f 2/1/1 3/2/1 1/3/1
f 2/1/1 4/4/1 3/2/1
