# Blender MTL File: 'None'
# Material Count: 1

newmtl Player_SandThrow_damage
Ns 49.300000
Ka 1.000000 1.000000 1.000000
Kd 1.100000 2.900000 8.300000
Ks 1.300000 0.700000 0.200000
Ke 0.000000 0.000000 0.000000
Ni 1.000000
d 1.000000
illum 2
map_Kd Player_SandThrow_damage.png